<?xml version="1.0" encoding="UTF-8" standalone="no"?>
<svg
   xmlns:osb="http://www.openswatchbook.org/uri/2009/osb"
   xmlns:dc="http://purl.org/dc/elements/1.1/"
   xmlns:cc="http://creativecommons.org/ns#"
   xmlns:rdf="http://www.w3.org/1999/02/22-rdf-syntax-ns#"
   xmlns:svg="http://www.w3.org/2000/svg"
   xmlns="http://www.w3.org/2000/svg"
   xmlns:xlink="http://www.w3.org/1999/xlink"
   xmlns:sodipodi="http://sodipodi.sourceforge.net/DTD/sodipodi-0.dtd"
   xmlns:inkscape="http://www.inkscape.org/namespaces/inkscape"
   viewBox="0 0 32 32"
   version="1.1"
   id="svg15"
   sodipodi:docname="Dans le G-contours-3.svg"
   inkscape:version="0.92.3 (2405546, 2018-03-11)"
   width="32"
   height="32"
   inkscape:export-filename="C:\Users\Millicent\gitWorkspace\duntier-ecosytem\rml12\static\img\press_HD\Grml12.png"
   inkscape:export-xdpi="6000"
   inkscape:export-ydpi="6000">
  <metadata
     id="metadata19">
    <rdf:RDF>
      <cc:Work
         rdf:about="">
        <dc:format>image/svg+xml</dc:format>
        <dc:type
           rdf:resource="http://purl.org/dc/dcmitype/StillImage" />
        <dc:title></dc:title>
      </cc:Work>
    </rdf:RDF>
  </metadata>
  <sodipodi:namedview
     pagecolor="#ffffff"
     bordercolor="#666666"
     borderopacity="1"
     objecttolerance="10"
     gridtolerance="10"
     guidetolerance="10"
     inkscape:pageopacity="1"
     inkscape:pageshadow="2"
     inkscape:window-width="1920"
     inkscape:window-height="1017"
     id="namedview17"
     showgrid="false"
     inkscape:snap-global="false"
     inkscape:zoom="8.449926"
     inkscape:cx="3.4648965"
     inkscape:cy="16.123366"
     inkscape:window-x="1072"
     inkscape:window-y="612"
     inkscape:window-maximized="1"
     inkscape:current-layer="svg15" />
  <defs
     id="defs3">
    <linearGradient
       inkscape:collect="always"
       id="linearGradient2391">
      <stop
         style="stop-color:#000000;stop-opacity:1;"
         offset="0"
         id="stop2387" />
      <stop
         style="stop-color:#000000;stop-opacity:0;"
         offset="1"
         id="stop2389" />
    </linearGradient>
    <linearGradient
       id="linearGradient2362"
       osb:paint="solid">
      <stop
         style="stop-color:#000000;stop-opacity:1;"
         offset="0"
         id="stop2360" />
    </linearGradient>
    <style
       id="bx-google-fonts">@import url(https://fonts.googleapis.com/css?family=Roboto:100,100italic,300,300italic,400,400italic,500,500italic,700,700italic,900,900italic);</style>
    <linearGradient
       inkscape:collect="always"
       xlink:href="#linearGradient2391"
       id="linearGradient2393"
       x1="5.7635155"
       y1="14.712164"
       x2="39.109486"
       y2="14.790046"
       gradientUnits="userSpaceOnUse" />
    <filter
       inkscape:label="Growing Cells"
       inkscape:menu="Overlays"
       inkscape:menu-tooltip="Random rounded living cells like fill"
       style="color-interpolation-filters:sRGB"
       id="filter3857">
      <feTurbulence
         type="fractalNoise"
         baseFrequency="0.1"
         numOctaves="3"
         result="result7"
         id="feTurbulence3839" />
      <feColorMatrix
         values="0"
         result="result8"
         type="saturate"
         id="feColorMatrix3841" />
      <feColorMatrix
         values="1 0 0 0 0 0 1 0 0 0 0 0 1 0 0 0 0 0 20 -12 "
         result="result6"
         type="matrix"
         id="feColorMatrix3843" />
      <feGaussianBlur
         stdDeviation="2"
         result="result5"
         in="result6"
         id="feGaussianBlur3845" />
      <feColorMatrix
         in="result5"
         values="1 0 0 0 0 0 1 0 0 0 0 0 1 0 0 0 0 0 10 -0.1 "
         result="result0"
         type="matrix"
         id="feColorMatrix3847" />
      <feComposite
         k1="0.8"
         k2="1"
         in2="SourceGraphic"
         operator="arithmetic"
         result="result3"
         in="result0"
         id="feComposite3849"
         k3="0"
         k4="0" />
      <feComposite
         operator="atop"
         in2="result8"
         id="feComposite3851" />
      <feBlend
         mode="normal"
         in2="SourceGraphic"
         result="result9"
         id="feBlend3853" />
      <feComposite
         in="result9"
         in2="SourceGraphic"
         operator="atop"
         result="result2"
         id="feComposite3855" />
    </filter>
    <filter
       inkscape:label="Growing Cells"
       inkscape:menu="Overlays"
       inkscape:menu-tooltip="Random rounded living cells like fill"
       style="color-interpolation-filters:sRGB"
       id="filter3877">
      <feTurbulence
         type="fractalNoise"
         baseFrequency="0.1"
         numOctaves="3"
         result="result7"
         id="feTurbulence3859" />
      <feColorMatrix
         values="0"
         result="result8"
         type="saturate"
         id="feColorMatrix3861" />
      <feColorMatrix
         values="1 0 0 0 0 0 1 0 0 0 0 0 1 0 0 0 0 0 20 -12 "
         result="result6"
         type="matrix"
         id="feColorMatrix3863" />
      <feGaussianBlur
         stdDeviation="2"
         result="result5"
         in="result6"
         id="feGaussianBlur3865" />
      <feColorMatrix
         in="result5"
         values="1 0 0 0 0 0 1 0 0 0 0 0 1 0 0 0 0 0 10 -0.1 "
         result="result0"
         type="matrix"
         id="feColorMatrix3867" />
      <feComposite
         k1="0.8"
         k2="1"
         in2="SourceGraphic"
         operator="arithmetic"
         result="result3"
         in="result0"
         id="feComposite3869"
         k3="0"
         k4="0" />
      <feComposite
         operator="atop"
         in2="result8"
         id="feComposite3871" />
      <feBlend
         mode="normal"
         in2="SourceGraphic"
         result="result9"
         id="feBlend3873" />
      <feComposite
         in="result9"
         in2="SourceGraphic"
         operator="atop"
         result="result2"
         id="feComposite3875" />
    </filter>
    <filter
       inkscape:label="Growing Cells"
       inkscape:menu="Overlays"
       inkscape:menu-tooltip="Random rounded living cells like fill"
       style="color-interpolation-filters:sRGB"
       id="filter3897">
      <feTurbulence
         type="fractalNoise"
         baseFrequency="0.1"
         numOctaves="3"
         result="result7"
         id="feTurbulence3879" />
      <feColorMatrix
         values="0"
         result="result8"
         type="saturate"
         id="feColorMatrix3881" />
      <feColorMatrix
         values="1 0 0 0 0 0 1 0 0 0 0 0 1 0 0 0 0 0 20 -12 "
         result="result6"
         type="matrix"
         id="feColorMatrix3883" />
      <feGaussianBlur
         stdDeviation="2"
         result="result5"
         in="result6"
         id="feGaussianBlur3885" />
      <feColorMatrix
         in="result5"
         values="1 0 0 0 0 0 1 0 0 0 0 0 1 0 0 0 0 0 10 -0.1 "
         result="result0"
         type="matrix"
         id="feColorMatrix3887" />
      <feComposite
         k1="0.8"
         k2="1"
         in2="SourceGraphic"
         operator="arithmetic"
         result="result3"
         in="result0"
         id="feComposite3889"
         k3="0"
         k4="0" />
      <feComposite
         operator="atop"
         in2="result8"
         id="feComposite3891" />
      <feBlend
         mode="normal"
         in2="SourceGraphic"
         result="result9"
         id="feBlend3893" />
      <feComposite
         in="result9"
         in2="SourceGraphic"
         operator="atop"
         result="result2"
         id="feComposite3895" />
    </filter>
  </defs>
  <path
     class="G main"
     d="m 16.654,16.022 10.142,-0.03 -0.028,10.642 -3.316,-3.387 c -1.867,1.912 -4.48,3.148 -7.521,3.148 -3.765,0 -7.246,-2.009 -9.127,-5.269 -4.058,-7.027 1.013,-15.811 9.127,-15.811 3.727,0 7.172,1.969 9.07,5.172 l -4.396,2.354 c -1.02,-1.584 -2.778,-2.549 -4.674,-2.549 -4.282,0 -6.959,4.636 -4.818,8.345 0.994,1.72 2.831,2.782 4.818,2.782 1.621,0 3.013,-0.665 3.999,-1.693 z"
     id="path13"
     inkscape:connector-curvature="0"
     style="display:inline;fill:none;fill-opacity:1;stroke:#999999;stroke-width:0.5;stroke-miterlimit:4;stroke-dasharray:none;stroke-dashoffset:0;stroke-opacity:1;filter:url(#filter3857)" />
  <path
     id="circle843"
     style="display:inline;opacity:0.9;fill:#ffffff;fill-opacity:1;stroke:#ffffff;stroke-width:3.63217306;stroke-miterlimit:4;stroke-dasharray:none;stroke-dashoffset:0.0000654;stroke-opacity:1"
     transform="matrix(0.2046803,-0.97882888,-0.97882888,-0.2046803,0,0)"
     sodipodi:type="arc"
     sodipodi:cx="-12.21578"
     sodipodi:cy="-18.820993"
     sodipodi:rx="10.899897"
     sodipodi:ry="10.899897"
     sodipodi:start="2.138314"
     sodipodi:end="4.067166"
     sodipodi:open="true"
     d="m -18.074916,-9.6297872 a 10.899897,10.899897 0 0 1 -5.032535,-8.7678228 10.899897,10.899897 0 0 1 4.336728,-9.132027"
     inkscape:label="circle843" />
  <path
     style="display:inline;opacity:0.9;fill:#ffffff;fill-opacity:1;stroke:#ffffff;stroke-width:3.41645002;stroke-miterlimit:4;stroke-dasharray:none;stroke-dashoffset:0.0000654;stroke-opacity:1"
     id="path841"
     transform="rotate(85.362972)"
     sodipodi:type="arc"
     sodipodi:cx="17.126825"
     sodipodi:cy="-14.495612"
     sodipodi:rx="10.252527"
     sodipodi:ry="10.252527"
     sodipodi:start="2.3156782"
     sodipodi:end="4.1162611"
     d="M 10.176791,-6.9582824 A 10.252527,10.252527 0 0 1 6.9026432,-15.257461 10.252527,10.252527 0 0 1 11.370621,-22.97974"
     sodipodi:open="true" />
  <g
     id="glibre"
     transform="matrix(0.095538,0,0,0.095538,-8.083054,-7.851116)"
     style="display:inline;fill:none;stroke:#999999;stroke-width:5.23351955;stroke-miterlimit:4;stroke-dasharray:none;stroke-dashoffset:0;stroke-opacity:1">
    <g
       id="macron"
       transform="matrix(0.84148449,0,0,0.84148449,466.0224,-317.18527)"
       style="display:inline;fill:none;stroke:#999999;stroke-width:6.21938944;stroke-miterlimit:4;stroke-dasharray:none;stroke-dashoffset:0;stroke-opacity:1">
      <path
         class="main"
         d="m -226.04393,501.50464 25.82916,20.70367 c -10.93431,13.99836 -27.30534,24.05487 -47.39934,26.26813 -24.87689,2.74011 -49.32586,-7.99963 -64.13729,-28.17352 13.94854,-10.58228 11.24874,-8.25812 26.66534,-19.57721 7.81708,10.64737 20.7207,16.31555 33.85014,14.86938 10.71334,-1.18005 19.42147,-6.58447 25.19199,-14.09045 z"
         transform="translate(8.7228955e-8,-21.390767)"
         id="path5"
         inkscape:connector-curvature="0"
         style="fill:none;stroke:#999999;stroke-width:6.21938944;stroke-miterlimit:4;stroke-dasharray:none;stroke-dashoffset:0;stroke-opacity:1" />
    </g>
  </g>
  <circle
     cx="16.000025"
     cy="29.632038"
     id="ellipse11"
     r="2.0599999"
     style="display:inline;fill:none;stroke:#999999;stroke-width:0.5;stroke-miterlimit:4;stroke-dasharray:none;stroke-dashoffset:0;stroke-opacity:1" />
  <circle
     r="8.9521513"
     cy="13.62083"
     cx="-17.832701"
     id="circle828"
     style="display:inline;opacity:0;fill:#ff00ff;fill-opacity:1;stroke:#ff00ff;stroke-width:3.07685208;stroke-miterlimit:4;stroke-dasharray:none;stroke-dashoffset:0.0000654;stroke-opacity:1"
     transform="matrix(-0.99112111,-0.13296221,-0.13296221,0.99112111,0,0)" />
  <circle
     style="display:none;opacity:0.41851855;fill:#ff00ff;fill-opacity:1;stroke:#ff00ff;stroke-width:2.40903902;stroke-miterlimit:4;stroke-dasharray:none;stroke-dashoffset:0.0000654;stroke-opacity:1"
     id="path826"
     cx="-20.359613"
     cy="-9.2998867"
     r="7.0091381"
     transform="rotate(-159.69823)" />
  <text
     id="text845"
     style="font-style:normal;font-weight:normal;font-size:5.33333349px;line-height:1.25;font-family:sans-serif;letter-spacing:0.04px;word-spacing:0px;display:inline;fill:#000000;fill-opacity:1;stroke:none;filter:url(#filter3877)"
     xml:space="preserve"><textPath
       xlink:href="#circle828"
       id="textPath858"
       style="font-style:normal;font-variant:normal;font-weight:normal;font-stretch:normal;font-size:2.66666675px;line-height:0;font-family:'Allerta Stencil';-inkscape-font-specification:'Allerta Stencil';letter-spacing:0.04px;fill:#000000">    Monnaie Libre</textPath></text>
  <text
     xml:space="preserve"
     style="font-style:normal;font-weight:normal;font-size:5.33333349px;line-height:1.25;font-family:sans-serif;letter-spacing:0px;word-spacing:0px;display:inline;fill:#000000;fill-opacity:1;stroke:none"
     x="19.418089"
     y="18.274509"
     id="text902"><tspan
       sodipodi:role="line"
       x="19.418089"
       y="18.274509"
       style="font-style:normal;font-variant:normal;font-weight:normal;font-stretch:normal;font-size:1.33333337px;font-family:'Allerta Stencil';-inkscape-font-specification:'Allerta Stencil'"
       id="tspan904">Bordeaux</tspan></text>
  <text
     xml:space="preserve"
     style="font-style:normal;font-weight:normal;font-size:5.33333349px;line-height:1.25;font-family:sans-serif;letter-spacing:0px;word-spacing:0px;display:inline;fill:#000000;fill-opacity:1;stroke:none"
     x="22.201139"
     y="20.102434"
     id="text910"><tspan
       sodipodi:role="line"
       id="tspan908"
       x="22.201139"
       y="20.102434"
       style="font-style:normal;font-variant:normal;font-weight:normal;font-stretch:normal;font-size:1.33333337px;font-family:'Allerta Stencil';-inkscape-font-specification:'Allerta Stencil'">17-25</tspan></text>
  <text
     xml:space="preserve"
     style="font-style:normal;font-weight:normal;font-size:5.33333349px;line-height:1.25;font-family:sans-serif;letter-spacing:0px;word-spacing:0px;display:inline;fill:#000000;fill-opacity:1;stroke:none"
     x="23.050594"
     y="21.835199"
     id="text910-6"><tspan
       sodipodi:role="line"
       id="tspan908-7"
       x="23.050594"
       y="21.835199"
       style="font-style:normal;font-variant:normal;font-weight:normal;font-stretch:normal;font-size:1.33333337px;font-family:'Allerta Stencil';-inkscape-font-specification:'Allerta Stencil'">nov.</tspan></text>
  <text
     id="text875-8"
     style="font-style:normal;font-weight:normal;font-size:5.33333349px;line-height:1.25;font-family:sans-serif;letter-spacing:0px;word-spacing:0px;display:inline;fill:#000000;fill-opacity:1;stroke:none;stroke-width:0.01;stroke-miterlimit:4;stroke-dasharray:0.001, 0.001;stroke-dashoffset:0"
     xml:space="preserve"><textPath
       xlink:href="#circle843"
       startOffset="50%"
       id="textPath854"
       style="font-style:normal;font-variant:normal;font-weight:normal;font-stretch:normal;font-size:1.33333337px;font-family:'Allerta Stencil';-inkscape-font-specification:'Allerta Stencil';text-align:center;text-anchor:middle;fill:#000000;stroke:none;stroke-width:0.01;stroke-miterlimit:4;stroke-dasharray:0.001, 0.001;stroke-dashoffset:0;stroke-opacity:1">création monétaire citoyenne</textPath></text>
  <text
     xml:space="preserve"
     style="font-style:normal;font-weight:normal;font-size:5.33333349px;line-height:1.25;font-family:sans-serif;letter-spacing:0px;word-spacing:0px;display:inline;fill:#000000;fill-opacity:1;stroke:none;filter:url(#filter3897)"
     id="text832"><textPath
       style="font-style:normal;font-variant:normal;font-weight:normal;font-stretch:normal;font-size:2.66666675px;line-height:0;font-family:'Allerta Stencil';-inkscape-font-specification:'Allerta Stencil';letter-spacing:-0.02px;fill:#000000"
       xlink:href="#path826"
       id="textPath834">Rencontres</textPath></text>
  <text
     xml:space="preserve"
     style="font-style:normal;font-weight:normal;font-size:5.33333349px;line-height:1.25;font-family:sans-serif;letter-spacing:0px;word-spacing:0px;fill:#000000;fill-opacity:1;stroke:none"
     x="15.969315"
     y="15.145348"
     id="text2494"><tspan
       sodipodi:role="line"
       id="tspan2492"
       x="15.969315"
       y="15.145348"
       style="font-style:normal;font-variant:normal;font-weight:normal;font-stretch:normal;font-size:1.4400003px;font-family:'Allerta Stencil';-inkscape-font-specification:'Allerta Stencil'">rml12.duniter.io</tspan></text>
  <text
     xml:space="preserve"
     style="font-style:normal;font-variant:normal;font-weight:normal;font-stretch:normal;font-size:1.33333337px;line-height:1.25;font-family:'Allerta Stencil';-inkscape-font-specification:'Allerta Stencil';text-align:start;letter-spacing:0px;word-spacing:0px;text-anchor:start;fill:#000000;fill-opacity:1;stroke:none"
     id="text846"
     x="4.0557075"
     y="0"><textPath
       xlink:href="#path841"
       id="textPath848"><tspan
   id="tspan844"
   style="text-align:start;text-anchor:start"> alternatives économiques</tspan></textPath></text>
</svg>
